{
  "name": "示例",
  "scale": "height",
  "width": 520,
  "height": 260,
  "components": [
    {
      "id": "SJOgvSLoW23",
      "name": "时间轴",
      "type": "timeline",
      "source": {
        "url": "./data/testdata.json",
        "type": "table"
      },
      "events": {
        "year": {
          "alias": "prov",
          "default": "湖北省"
        }
      },
      "paint": {
        "field": "prov",
        "autoPlay": true,
        "playInterval": 3000,
        "nodeColor": "#fff000"
      },
      "layout": {
        "width": 500,
        "height": 60,
        "offsetX": 10,
        "offsetY": 0,
        "visible": true
      }
    },
    {
      "id": "HbuQHNEsF",
      "name": "饼图",
      "type": "pie",
      "source": {
        "type": "table",
        "url": "./data/testdata.json",
        "transform": [
          {
            "type": "filter",
            "condition": ["==", "prov", "{{prov}}"]
          }
        ]
      },
      "paint": {
        "colors": [
          "#53a3f6",
          "#cd82f6",
          "#a9f470"
        ],
        "series": [
          {
            "name": "",
            "nameField": "city",
            "valueField": "gdp",
            "showLabel": true,
            "showLabelLine": true,
            "center": [
              "40%",
              "50%"
            ],
            "labelSize": 16,
            "labelColor": "#79f2fb",
            "labelFormatter": "{d}%"
          }
        ],
        "legend": {
          "itemWidth": 18,
          "orient": "vertical",
          "top": "middle",
          "left": "right",
          "align": "left",
          "show": true,
          "itemGap": 20,
          "itemHeight": 18,
          "fontSize": 16
        }
      },
      "layout": {
        "width": 400,
        "height": 200,
        "offsetX": 60,
        "offsetY": 50,
        "visible": true
      }
    }
  ]
}