{
  "version": 8,
  "sources": {
    "raster": {
      "type": "raster",
      "tiles": ["https://t0.tianditu.gov.cn/DataServer?T=vec_c&x={x}&y={y}&l={z}&tk=caa3f753216b87bf4bd6cca1ef6feb4f"],
      "tileSize": 256
    },
    "label": {
      "type": "raster",
      "tiles": ["https://t0.tianditu.gov.cn/DataServer?T=cva_c&x={x}&y={y}&l={z}&tk=caa3f753216b87bf4bd6cca1ef6feb4f"],
      "tileSize": 256
    }
  },
  "layers": [
    {
      "id": "raster_map",
      "source": "raster",
      "type": "raster"
    },
    {
      "id": "label_map",
      "source": "label",
      "type": "raster"
    }
  ],
  "center": [116.5, 39.5],
  "zoom": 8,
  "pitch": 0,
  "bearing": 0
}