[
  {
    "name": "和平区",
    "pac": "120101",
    "confirmedTotal": 6
  },
  {
    "name": "河东区",
    "pac": "120102",
    "confirmedTotal": 15
  },
  {
    "name": "河西区",
    "pac": "120103",
    "confirmedTotal": 4
  },
  {
    "name": "南开区",
    "pac": "120104",
    "confirmedTotal": 6
  },
  {
    "name": "河北区",
    "pac": "120105",
    "confirmedTotal": 12
  },
  {
    "name": "红桥区",
    "pac": "120106",
    "confirmedTotal": 2
  },
  {
    "name": "东丽区",
    "pac": "120110",
    "confirmedTotal": 4
  },
  {
    "name": "西青区",
    "pac": "120111",
    "confirmedTotal": 4
  },
  {
    "name": "津南区",
    "pac": "120112",
    "confirmedTotal": 1
  },
  {
    "name": "北辰区",
    "pac": "120113",
    "confirmedTotal": 6
  },
  {
    "name": "武清区",
    "pac": "120114",
    "confirmedTotal": 2
  },
  {
    "name": "宝坻区",
    "pac": "120115",
    "confirmedTotal": 53
  },
  {
    "name": "滨海新区",
    "pac": "120116",
    "confirmedTotal": 3
  },
  {
    "name": "宁河区",
    "pac": "120117",
    "confirmedTotal": 4
  },
  {
    "name": "秦皇岛市",
    "pac": "130300",
    "confirmedTotal": 10
  },
  {
    "name": "邯郸市",
    "pac": "130400",
    "confirmedTotal": 31
  },
  {
    "name": "邢台市",
    "pac": "130500",
    "confirmedTotal": 23
  },
  {
    "name": "保定市",
    "pac": "130600",
    "confirmedTotal": 32
  },
  {
    "name": "张家口市",
    "pac": "130700",
    "confirmedTotal": 34
  },
  {
    "name": "承德市",
    "pac": "130800",
    "confirmedTotal": 7
  },
  {
    "name": "沧州市",
    "pac": "130900",
    "confirmedTotal": 48
  },
  {
    "name": "兴安盟",
    "pac": "152200",
    "confirmedTotal": 1
  },
  {
    "name": "锡林郭勒盟",
    "pac": "152500",
    "confirmedTotal": 9
  },
  {
    "name": "辽宁省",
    "pac": "210000",
    "confirmedTotal": 121
  },
  {
    "name": "本溪市",
    "pac": "210500",
    "confirmedTotal": 3
  },
  {
    "name": "丹东市",
    "pac": "210600",
    "confirmedTotal": 7
  },
  {
    "name": "锦州市",
    "pac": "210700",
    "confirmedTotal": 12
  },
  {
    "name": "营口市",
    "pac": "210800",
    "confirmedTotal": 1
  },
  {
    "name": "北京市",
    "pac": "110000",
    "confirmedTotal": 393
  },
  {
    "name": "东城区",
    "pac": "110101",
    "confirmedTotal": 12
  },
  {
    "name": "西城区",
    "pac": "110102",
    "confirmedTotal": 52
  },
  {
    "name": "丰台区",
    "pac": "110106",
    "confirmedTotal": 40
  },
  {
    "name": "石景山区",
    "pac": "110107",
    "confirmedTotal": 14
  },
  {
    "name": "海淀区",
    "pac": "110108",
    "confirmedTotal": 61
  },
  {
    "name": "门头沟区",
    "pac": "110109",
    "confirmedTotal": 3
  },
  {
    "name": "房山区",
    "pac": "110111",
    "confirmedTotal": 16
  },
  {
    "name": "通州区",
    "pac": "110112",
    "confirmedTotal": 18
  },
  {
    "name": "顺义区",
    "pac": "110113",
    "confirmedTotal": 10
  },
  {
    "name": "昌平区",
    "pac": "110114",
    "confirmedTotal": 29
  },
  {
    "name": "大兴区",
    "pac": "110115",
    "confirmedTotal": 39
  },
  {
    "name": "怀柔区",
    "pac": "110116",
    "confirmedTotal": 7
  },
  {
    "name": "密云区",
    "pac": "110118",
    "confirmedTotal": 7
  },
  {
    "name": "延庆区",
    "pac": "110119",
    "confirmedTotal": 1
  },
  {
    "name": "天津市",
    "pac": "120000",
    "confirmedTotal": 128
  },
  {
    "name": "河北省",
    "pac": "130000",
    "confirmedTotal": 306
  },
  {
    "name": "石家庄市",
    "pac": "130100",
    "confirmedTotal": 28
  },
  {
    "name": "唐山市",
    "pac": "130200",
    "confirmedTotal": 55
  },
  {
    "name": "廊坊市",
    "pac": "131000",
    "confirmedTotal": 30
  },
  {
    "name": "衡水市",
    "pac": "131100",
    "confirmedTotal": 8
  },
  {
    "name": "山西省",
    "pac": "140000",
    "confirmedTotal": 131
  },
  {
    "name": "太原市",
    "pac": "140100",
    "confirmedTotal": 19
  },
  {
    "name": "大同市",
    "pac": "140200",
    "confirmedTotal": 12
  },
  {
    "name": "阳泉市",
    "pac": "140300",
    "confirmedTotal": 4
  },
  {
    "name": "长治市",
    "pac": "140400",
    "confirmedTotal": 8
  },
  {
    "name": "晋城市",
    "pac": "140500",
    "confirmedTotal": 10
  },
  {
    "name": "朔州市",
    "pac": "140600",
    "confirmedTotal": 8
  },
  {
    "name": "晋中市",
    "pac": "140700",
    "confirmedTotal": 36
  },
  {
    "name": "运城市",
    "pac": "140800",
    "confirmedTotal": 19
  },
  {
    "name": "忻州市",
    "pac": "140900",
    "confirmedTotal": 7
  },
  {
    "name": "临汾市",
    "pac": "141000",
    "confirmedTotal": 2
  },
  {
    "name": "吕梁市",
    "pac": "141100",
    "confirmedTotal": 6
  },
  {
    "name": "内蒙古自治区",
    "pac": "150000",
    "confirmedTotal": 75
  },
  {
    "name": "呼和浩特市",
    "pac": "150100",
    "confirmedTotal": 7
  },
  {
    "name": "包头市",
    "pac": "150200",
    "confirmedTotal": 11
  },
  {
    "name": "乌海市",
    "pac": "150300",
    "confirmedTotal": 2
  },
  {
    "name": "赤峰市",
    "pac": "150400",
    "confirmedTotal": 9
  },
  {
    "name": "通辽市",
    "pac": "150500",
    "confirmedTotal": 7
  },
  {
    "name": "鄂尔多斯市",
    "pac": "150600",
    "confirmedTotal": 11
  },
  {
    "name": "呼伦贝尔市",
    "pac": "150700",
    "confirmedTotal": 7
  },
  {
    "name": "巴彦淖尔市",
    "pac": "150800",
    "confirmedTotal": 8
  },
  {
    "name": "乌兰察布市",
    "pac": "150900",
    "confirmedTotal": 3
  },
  {
    "name": "沈阳市",
    "pac": "210100",
    "confirmedTotal": 28
  },
  {
    "name": "大连市",
    "pac": "210200",
    "confirmedTotal": 19
  },
  {
    "name": "鞍山市",
    "pac": "210300",
    "confirmedTotal": 4
  },
  {
    "name": "阜新市",
    "pac": "210900",
    "confirmedTotal": 8
  },
  {
    "name": "辽阳市",
    "pac": "211000",
    "confirmedTotal": 3
  },
  {
    "name": "盘锦市",
    "pac": "211100",
    "confirmedTotal": 11
  },
  {
    "name": "铁岭市",
    "pac": "211200",
    "confirmedTotal": 7
  },
  {
    "name": "朝阳市",
    "pac": "211300",
    "confirmedTotal": 6
  },
  {
    "name": "葫芦岛市",
    "pac": "211400",
    "confirmedTotal": 12
  },
  {
    "name": "吉林省",
    "pac": "220000",
    "confirmedTotal": 90
  },
  {
    "name": "长春市",
    "pac": "220100",
    "confirmedTotal": 45
  },
  {
    "name": "四平市",
    "pac": "220300",
    "confirmedTotal": 15
  },
  {
    "name": "辽源市",
    "pac": "220400",
    "confirmedTotal": 7
  },
  {
    "name": "通化市",
    "pac": "220500",
    "confirmedTotal": 3
  },
  {
    "name": "松原市",
    "pac": "220700",
    "confirmedTotal": 2
  },
  {
    "name": "白城市",
    "pac": "220800",
    "confirmedTotal": 1
  },
  {
    "name": "延边朝鲜族自治州",
    "pac": "222400",
    "confirmedTotal": 5
  },
  {
    "name": "黑龙江省",
    "pac": "230000",
    "confirmedTotal": 470
  },
  {
    "name": "哈尔滨市",
    "pac": "230100",
    "confirmedTotal": 192
  },
  {
    "name": "齐齐哈尔市",
    "pac": "230200",
    "confirmedTotal": 43
  },
  {
    "name": "鸡西市",
    "pac": "230300",
    "confirmedTotal": 46
  },
  {
    "name": "鹤岗市",
    "pac": "230400",
    "confirmedTotal": 5
  },
  {
    "name": "双鸭山市",
    "pac": "230500",
    "confirmedTotal": 52
  },
  {
    "name": "大庆市",
    "pac": "230600",
    "confirmedTotal": 23
  },
  {
    "name": "伊春市",
    "pac": "230700",
    "confirmedTotal": 1
  },
  {
    "name": "佳木斯市",
    "pac": "230800",
    "confirmedTotal": 15
  },
  {
    "name": "七台河市",
    "pac": "230900",
    "confirmedTotal": 17
  },
  {
    "name": "牡丹江市",
    "pac": "231000",
    "confirmedTotal": 13
  },
  {
    "name": "黑河市",
    "pac": "231100",
    "confirmedTotal": 14
  },
  {
    "name": "绥化市",
    "pac": "231200",
    "confirmedTotal": 47
  },
  {
    "name": "大兴安岭地区",
    "pac": "232700",
    "confirmedTotal": 2
  },
  {
    "name": "上海市",
    "pac": "310000",
    "confirmedTotal": 333
  },
  {
    "name": "黄浦区",
    "pac": "310101",
    "confirmedTotal": 6
  },
  {
    "name": "徐汇区",
    "pac": "310104",
    "confirmedTotal": 18
  },
  {
    "name": "长宁区",
    "pac": "310105",
    "confirmedTotal": 13
  },
  {
    "name": "静安区",
    "pac": "310106",
    "confirmedTotal": 16
  },
  {
    "name": "普陀区",
    "pac": "310107",
    "confirmedTotal": 11
  },
  {
    "name": "虹口区",
    "pac": "310109",
    "confirmedTotal": 7
  },
  {
    "name": "杨浦区",
    "pac": "310110",
    "confirmedTotal": 9
  },
  {
    "name": "闵行区",
    "pac": "310112",
    "confirmedTotal": 18
  },
  {
    "name": "宝山区",
    "pac": "310113",
    "confirmedTotal": 21
  },
  {
    "name": "嘉定区",
    "pac": "310114",
    "confirmedTotal": 9
  },
  {
    "name": "浦东新区",
    "pac": "310115",
    "confirmedTotal": 60
  },
  {
    "name": "金山区",
    "pac": "310116",
    "confirmedTotal": 3
  },
  {
    "name": "松江区",
    "pac": "310117",
    "confirmedTotal": 14
  },
  {
    "name": "青浦区",
    "pac": "310118",
    "confirmedTotal": 5
  },
  {
    "name": "奉贤区",
    "pac": "310120",
    "confirmedTotal": 9
  },
  {
    "name": "崇明区",
    "pac": "310151",
    "confirmedTotal": 4
  },
  {
    "name": "江苏省",
    "pac": "320000",
    "confirmedTotal": 631
  },
  {
    "name": "南京市",
    "pac": "320100",
    "confirmedTotal": 93
  },
  {
    "name": "无锡市",
    "pac": "320200",
    "confirmedTotal": 55
  },
  {
    "name": "徐州市",
    "pac": "320300",
    "confirmedTotal": 79
  },
  {
    "name": "常州市",
    "pac": "320400",
    "confirmedTotal": 51
  },
  {
    "name": "苏州市",
    "pac": "320500",
    "confirmedTotal": 87
  },
  {
    "name": "南通市",
    "pac": "320600",
    "confirmedTotal": 40
  },
  {
    "name": "连云港市",
    "pac": "320700",
    "confirmedTotal": 48
  },
  {
    "name": "淮安市",
    "pac": "320800",
    "confirmedTotal": 66
  },
  {
    "name": "盐城市",
    "pac": "320900",
    "confirmedTotal": 27
  },
  {
    "name": "扬州市",
    "pac": "321000",
    "confirmedTotal": 23
  },
  {
    "name": "镇江市",
    "pac": "321100",
    "confirmedTotal": 12
  },
  {
    "name": "泰州市",
    "pac": "321200",
    "confirmedTotal": 37
  },
  {
    "name": "宿迁市",
    "pac": "321300",
    "confirmedTotal": 13
  },
  {
    "name": "浙江省",
    "pac": "330000",
    "confirmedTotal": 1173
  },
  {
    "name": "杭州市",
    "pac": "330100",
    "confirmedTotal": 168
  },
  {
    "name": "宁波市",
    "pac": "330200",
    "confirmedTotal": 156
  },
  {
    "name": "温州市",
    "pac": "330300",
    "confirmedTotal": 504
  },
  {
    "name": "嘉兴市",
    "pac": "330400",
    "confirmedTotal": 44
  },
  {
    "name": "湖州市",
    "pac": "330500",
    "confirmedTotal": 10
  },
  {
    "name": "绍兴市",
    "pac": "330600",
    "confirmedTotal": 42
  },
  {
    "name": "金华市",
    "pac": "330700",
    "confirmedTotal": 55
  },
  {
    "name": "衢州市",
    "pac": "330800",
    "confirmedTotal": 21
  },
  {
    "name": "舟山市",
    "pac": "330900",
    "confirmedTotal": 10
  },
  {
    "name": "台州市",
    "pac": "331000",
    "confirmedTotal": 146
  },
  {
    "name": "丽水市",
    "pac": "331100",
    "confirmedTotal": 17
  },
  {
    "name": "安徽省",
    "pac": "340000",
    "confirmedTotal": 986
  },
  {
    "name": "合肥市",
    "pac": "340100",
    "confirmedTotal": 173
  },
  {
    "name": "芜湖市",
    "pac": "340200",
    "confirmedTotal": 33
  },
  {
    "name": "蚌埠市",
    "pac": "340300",
    "confirmedTotal": 159
  },
  {
    "name": "淮南市",
    "pac": "340400",
    "confirmedTotal": 27
  },
  {
    "name": "马鞍山市",
    "pac": "340500",
    "confirmedTotal": 37
  },
  {
    "name": "淮北市",
    "pac": "340600",
    "confirmedTotal": 27
  },
  {
    "name": "铜陵市",
    "pac": "340700",
    "confirmedTotal": 29
  },
  {
    "name": "安庆市",
    "pac": "340800",
    "confirmedTotal": 83
  },
  {
    "name": "黄山市",
    "pac": "341000",
    "confirmedTotal": 9
  },
  {
    "name": "滁州市",
    "pac": "341100",
    "confirmedTotal": 13
  },
  {
    "name": "阜阳市",
    "pac": "341200",
    "confirmedTotal": 155
  },
  {
    "name": "宿州市",
    "pac": "341300",
    "confirmedTotal": 41
  },
  {
    "name": "六安市",
    "pac": "341500",
    "confirmedTotal": 69
  },
  {
    "name": "亳州市",
    "pac": "341600",
    "confirmedTotal": 108
  },
  {
    "name": "池州市",
    "pac": "341700",
    "confirmedTotal": 17
  },
  {
    "name": "宣城市",
    "pac": "341800",
    "confirmedTotal": 6
  },
  {
    "name": "福建省",
    "pac": "350000",
    "confirmedTotal": 293
  },
  {
    "name": "福州市",
    "pac": "350100",
    "confirmedTotal": 71
  },
  {
    "name": "厦门市",
    "pac": "350200",
    "confirmedTotal": 35
  },
  {
    "name": "莆田市",
    "pac": "350300",
    "confirmedTotal": 55
  },
  {
    "name": "三明市",
    "pac": "350400",
    "confirmedTotal": 14
  },
  {
    "name": "泉州市",
    "pac": "350500",
    "confirmedTotal": 46
  },
  {
    "name": "漳州市",
    "pac": "350600",
    "confirmedTotal": 20
  },
  {
    "name": "南平市",
    "pac": "350700",
    "confirmedTotal": 20
  },
  {
    "name": "龙岩市",
    "pac": "350800",
    "confirmedTotal": 6
  },
  {
    "name": "宁德市",
    "pac": "350900",
    "confirmedTotal": 26
  },
  {
    "name": "江西省",
    "pac": "360000",
    "confirmedTotal": 934
  },
  {
    "name": "南昌市",
    "pac": "360100",
    "confirmedTotal": 230
  },
  {
    "name": "景德镇市",
    "pac": "360200",
    "confirmedTotal": 6
  },
  {
    "name": "萍乡市",
    "pac": "360300",
    "confirmedTotal": 33
  },
  {
    "name": "九江市",
    "pac": "360400",
    "confirmedTotal": 118
  },
  {
    "name": "新余市",
    "pac": "360500",
    "confirmedTotal": 129
  },
  {
    "name": "鹰潭市",
    "pac": "360600",
    "confirmedTotal": 18
  },
  {
    "name": "赣州市",
    "pac": "360700",
    "confirmedTotal": 76
  },
  {
    "name": "吉安市",
    "pac": "360800",
    "confirmedTotal": 22
  },
  {
    "name": "宜春市",
    "pac": "360900",
    "confirmedTotal": 106
  },
  {
    "name": "抚州市",
    "pac": "361000",
    "confirmedTotal": 72
  },
  {
    "name": "上饶市",
    "pac": "361100",
    "confirmedTotal": 123
  },
  {
    "name": "山东省",
    "pac": "370000",
    "confirmedTotal": 544
  },
  {
    "name": "济南市",
    "pac": "370100",
    "confirmedTotal": 47
  },
  {
    "name": "青岛市",
    "pac": "370200",
    "confirmedTotal": 59
  },
  {
    "name": "淄博市",
    "pac": "370300",
    "confirmedTotal": 29
  },
  {
    "name": "枣庄市",
    "pac": "370400",
    "confirmedTotal": 24
  },
  {
    "name": "烟台市",
    "pac": "370600",
    "confirmedTotal": 47
  },
  {
    "name": "潍坊市",
    "pac": "370700",
    "confirmedTotal": 44
  },
  {
    "name": "济宁市",
    "pac": "370800",
    "confirmedTotal": 52
  },
  {
    "name": "泰安市",
    "pac": "370900",
    "confirmedTotal": 32
  },
  {
    "name": "威海市",
    "pac": "371000",
    "confirmedTotal": 38
  },
  {
    "name": "日照市",
    "pac": "371100",
    "confirmedTotal": 16
  },
  {
    "name": "临沂市",
    "pac": "371300",
    "confirmedTotal": 48
  },
  {
    "name": "德州市",
    "pac": "371400",
    "confirmedTotal": 37
  },
  {
    "name": "聊城市",
    "pac": "371500",
    "confirmedTotal": 38
  },
  {
    "name": "滨州市",
    "pac": "371600",
    "confirmedTotal": 15
  },
  {
    "name": "菏泽市",
    "pac": "371700",
    "confirmedTotal": 18
  },
  {
    "name": "河南省",
    "pac": "410000",
    "confirmedTotal": 1262
  },
  {
    "name": "郑州市",
    "pac": "410100",
    "confirmedTotal": 156
  },
  {
    "name": "开封市",
    "pac": "410200",
    "confirmedTotal": 26
  },
  {
    "name": "洛阳市",
    "pac": "410300",
    "confirmedTotal": 31
  },
  {
    "name": "平顶山市",
    "pac": "410400",
    "confirmedTotal": 58
  },
  {
    "name": "安阳市",
    "pac": "410500",
    "confirmedTotal": 52
  },
  {
    "name": "鹤壁市",
    "pac": "410600",
    "confirmedTotal": 19
  },
  {
    "name": "新乡市",
    "pac": "410700",
    "confirmedTotal": 57
  },
  {
    "name": "焦作市",
    "pac": "410800",
    "confirmedTotal": 32
  },
  {
    "name": "濮阳市",
    "pac": "410900",
    "confirmedTotal": 17
  },
  {
    "name": "许昌市",
    "pac": "411000",
    "confirmedTotal": 39
  },
  {
    "name": "漯河市",
    "pac": "411100",
    "confirmedTotal": 34
  },
  {
    "name": "三门峡市",
    "pac": "411200",
    "confirmedTotal": 7
  },
  {
    "name": "南阳市",
    "pac": "411300",
    "confirmedTotal": 155
  },
  {
    "name": "商丘市",
    "pac": "411400",
    "confirmedTotal": 91
  },
  {
    "name": "信阳市",
    "pac": "411500",
    "confirmedTotal": 268
  },
  {
    "name": "周口市",
    "pac": "411600",
    "confirmedTotal": 76
  },
  {
    "name": "驻马店市",
    "pac": "411700",
    "confirmedTotal": 139
  },
  {
    "name": "济源市",
    "pac": "419001",
    "confirmedTotal": 5
  },
  {
    "name": "湖北省",
    "pac": "420000",
    "confirmedTotal": 61682
  },
  {
    "name": "武汉市",
    "pac": "420100",
    "confirmedTotal": 44412
  },
  {
    "name": "黄石市",
    "pac": "420200",
    "confirmedTotal": 983
  },
  {
    "name": "十堰市",
    "pac": "420300",
    "confirmedTotal": 638
  },
  {
    "name": "宜昌市",
    "pac": "420500",
    "confirmedTotal": 907
  },
  {
    "name": "襄阳市",
    "pac": "420600",
    "confirmedTotal": 1165
  },
  {
    "name": "鄂州市",
    "pac": "420700",
    "confirmedTotal": 1343
  },
  {
    "name": "荆门市",
    "pac": "420800",
    "confirmedTotal": 901
  },
  {
    "name": "孝感市",
    "pac": "420900",
    "confirmedTotal": 3344
  },
  {
    "name": "荆州市",
    "pac": "421000",
    "confirmedTotal": 1541
  },
  {
    "name": "黄冈市",
    "pac": "421100",
    "confirmedTotal": 2844
  },
  {
    "name": "咸宁市",
    "pac": "421200",
    "confirmedTotal": 832
  },
  {
    "name": "随州市",
    "pac": "421300",
    "confirmedTotal": 1280
  },
  {
    "name": "恩施土家族苗族自治州",
    "pac": "422800",
    "confirmedTotal": 249
  },
  {
    "name": "仙桃市",
    "pac": "429004",
    "confirmedTotal": 562
  },
  {
    "name": "潜江市",
    "pac": "429005",
    "confirmedTotal": 185
  },
  {
    "name": "天门市",
    "pac": "429006",
    "confirmedTotal": 486
  },
  {
    "name": "神农架林区",
    "pac": "429021",
    "confirmedTotal": 10
  },
  {
    "name": "湖南省",
    "pac": "430000",
    "confirmedTotal": 1008
  },
  {
    "name": "长沙市",
    "pac": "430100",
    "confirmedTotal": 241
  },
  {
    "name": "株洲市",
    "pac": "430200",
    "confirmedTotal": 78
  },
  {
    "name": "湘潭市",
    "pac": "430300",
    "confirmedTotal": 35
  },
  {
    "name": "衡阳市",
    "pac": "430400",
    "confirmedTotal": 48
  },
  {
    "name": "邵阳市",
    "pac": "430500",
    "confirmedTotal": 102
  },
  {
    "name": "岳阳市",
    "pac": "430600",
    "confirmedTotal": 155
  },
  {
    "name": "常德市",
    "pac": "430700",
    "confirmedTotal": 79
  },
  {
    "name": "张家界市",
    "pac": "430800",
    "confirmedTotal": 5
  },
  {
    "name": "益阳市",
    "pac": "430900",
    "confirmedTotal": 59
  },
  {
    "name": "郴州市",
    "pac": "431000",
    "confirmedTotal": 39
  },
  {
    "name": "永州市",
    "pac": "431100",
    "confirmedTotal": 43
  },
  {
    "name": "怀化市",
    "pac": "431200",
    "confirmedTotal": 40
  },
  {
    "name": "娄底市",
    "pac": "431300",
    "confirmedTotal": 76
  },
  {
    "name": "湘西土家族苗族自治州",
    "pac": "433100",
    "confirmedTotal": 8
  },
  {
    "name": "广东省",
    "pac": "440000",
    "confirmedTotal": 1331
  },
  {
    "name": "广州市",
    "pac": "440100",
    "confirmedTotal": 339
  },
  {
    "name": "韶关市",
    "pac": "440200",
    "confirmedTotal": 10
  },
  {
    "name": "深圳市",
    "pac": "440300",
    "confirmedTotal": 416
  },
  {
    "name": "珠海市",
    "pac": "440400",
    "confirmedTotal": 98
  },
  {
    "name": "汕头市",
    "pac": "440500",
    "confirmedTotal": 25
  },
  {
    "name": "佛山市",
    "pac": "440600",
    "confirmedTotal": 84
  },
  {
    "name": "江门市",
    "pac": "440700",
    "confirmedTotal": 23
  },
  {
    "name": "湛江市",
    "pac": "440800",
    "confirmedTotal": 22
  },
  {
    "name": "茂名市",
    "pac": "440900",
    "confirmedTotal": 14
  },
  {
    "name": "肇庆市",
    "pac": "441200",
    "confirmedTotal": 18
  },
  {
    "name": "惠州市",
    "pac": "441300",
    "confirmedTotal": 62
  },
  {
    "name": "梅州市",
    "pac": "441400",
    "confirmedTotal": 16
  },
  {
    "name": "汕尾市",
    "pac": "441500",
    "confirmedTotal": 5
  },
  {
    "name": "河源市",
    "pac": "441600",
    "confirmedTotal": 4
  },
  {
    "name": "阳江市",
    "pac": "441700",
    "confirmedTotal": 13
  },
  {
    "name": "清远市",
    "pac": "441800",
    "confirmedTotal": 12
  },
  {
    "name": "东莞市",
    "pac": "441900",
    "confirmedTotal": 91
  },
  {
    "name": "中山市",
    "pac": "442000",
    "confirmedTotal": 66
  },
  {
    "name": "潮州市",
    "pac": "445100",
    "confirmedTotal": 5
  },
  {
    "name": "揭阳市",
    "pac": "445200",
    "confirmedTotal": 8
  },
  {
    "name": "广西壮族自治区",
    "pac": "450000",
    "confirmedTotal": 244
  },
  {
    "name": "南宁市",
    "pac": "450100",
    "confirmedTotal": 54
  },
  {
    "name": "柳州市",
    "pac": "450200",
    "confirmedTotal": 24
  },
  {
    "name": "桂林市",
    "pac": "450300",
    "confirmedTotal": 31
  },
  {
    "name": "梧州市",
    "pac": "450400",
    "confirmedTotal": 5
  },
  {
    "name": "北海市",
    "pac": "450500",
    "confirmedTotal": 44
  },
  {
    "name": "防城港市",
    "pac": "450600",
    "confirmedTotal": 18
  },
  {
    "name": "钦州市",
    "pac": "450700",
    "confirmedTotal": 8
  },
  {
    "name": "贵港市",
    "pac": "450800",
    "confirmedTotal": 8
  },
  {
    "name": "玉林市",
    "pac": "450900",
    "confirmedTotal": 11
  },
  {
    "name": "百色市",
    "pac": "451000",
    "confirmedTotal": 3
  },
  {
    "name": "贺州市",
    "pac": "451100",
    "confirmedTotal": 4
  },
  {
    "name": "河池市",
    "pac": "451200",
    "confirmedTotal": 23
  },
  {
    "name": "来宾市",
    "pac": "451300",
    "confirmedTotal": 11
  },
  {
    "name": "崇左市",
    "pac": "451400",
    "confirmedTotal": 0
  },
  {
    "name": "海南省",
    "pac": "460000",
    "confirmedTotal": 163
  },
  {
    "name": "海口市",
    "pac": "460100",
    "confirmedTotal": 34
  },
  {
    "name": "三亚市",
    "pac": "460200",
    "confirmedTotal": 54
  },
  {
    "name": "儋州市",
    "pac": "460400",
    "confirmedTotal": 15
  },
  {
    "name": "琼海市",
    "pac": "469002",
    "confirmedTotal": 6
  },
  {
    "name": "文昌市",
    "pac": "469005",
    "confirmedTotal": 3
  },
  {
    "name": "万宁市",
    "pac": "469006",
    "confirmedTotal": 13
  },
  {
    "name": "东方市",
    "pac": "469007",
    "confirmedTotal": 3
  },
  {
    "name": "定安县",
    "pac": "469021",
    "confirmedTotal": 3
  },
  {
    "name": "澄迈县",
    "pac": "469023",
    "confirmedTotal": 9
  },
  {
    "name": "临高县",
    "pac": "469024",
    "confirmedTotal": 6
  },
  {
    "name": "乐东黎族自治县",
    "pac": "469027",
    "confirmedTotal": 2
  },
  {
    "name": "陵水黎族自治县",
    "pac": "469028",
    "confirmedTotal": 4
  },
  {
    "name": "保亭黎族苗族自治县",
    "pac": "469029",
    "confirmedTotal": 3
  },
  {
    "name": "琼中黎族苗族自治县",
    "pac": "469030",
    "confirmedTotal": 1
  },
  {
    "name": "重庆市",
    "pac": "500000",
    "confirmedTotal": 555
  },
  {
    "name": "万州区",
    "pac": "500101",
    "confirmedTotal": 110
  },
  {
    "name": "涪陵区",
    "pac": "500102",
    "confirmedTotal": 3
  },
  {
    "name": "渝中区",
    "pac": "500103",
    "confirmedTotal": 20
  },
  {
    "name": "大渡口区",
    "pac": "500104",
    "confirmedTotal": 7
  },
  {
    "name": "江北区",
    "pac": "500105",
    "confirmedTotal": 28
  },
  {
    "name": "沙坪坝区",
    "pac": "500106",
    "confirmedTotal": 8
  },
  {
    "name": "九龙坡区",
    "pac": "500107",
    "confirmedTotal": 20
  },
  {
    "name": "南岸区",
    "pac": "500108",
    "confirmedTotal": 15
  },
  {
    "name": "綦江区",
    "pac": "500110",
    "confirmedTotal": 23
  },
  {
    "name": "大足区",
    "pac": "500111",
    "confirmedTotal": 14
  },
  {
    "name": "渝北区",
    "pac": "500112",
    "confirmedTotal": 16
  },
  {
    "name": "巴南区",
    "pac": "500113",
    "confirmedTotal": 6
  },
  {
    "name": "黔江区",
    "pac": "500114",
    "confirmedTotal": 2
  },
  {
    "name": "长寿区",
    "pac": "500115",
    "confirmedTotal": 21
  },
  {
    "name": "江津区",
    "pac": "500116",
    "confirmedTotal": 4
  },
  {
    "name": "合川区",
    "pac": "500117",
    "confirmedTotal": 23
  },
  {
    "name": "永川区",
    "pac": "500118",
    "confirmedTotal": 5
  },
  {
    "name": "璧山区",
    "pac": "500120",
    "confirmedTotal": 9
  },
  {
    "name": "铜梁区",
    "pac": "500151",
    "confirmedTotal": 9
  },
  {
    "name": "潼南区",
    "pac": "500152",
    "confirmedTotal": 18
  },
  {
    "name": "荣昌区",
    "pac": "500153",
    "confirmedTotal": 9
  },
  {
    "name": "开州区",
    "pac": "500154",
    "confirmedTotal": 20
  },
  {
    "name": "梁平",
    "pac": "500155",
    "confirmedTotal": 4
  },
  {
    "name": "武隆",
    "pac": "500156",
    "confirmedTotal": 1
  },
  {
    "name": "城口",
    "pac": "500229",
    "confirmedTotal": 2
  },
  {
    "name": "丰都",
    "pac": "500230",
    "confirmedTotal": 10
  },
  {
    "name": "垫江",
    "pac": "500231",
    "confirmedTotal": 20
  },
  {
    "name": "忠县",
    "pac": "500233",
    "confirmedTotal": 20
  },
  {
    "name": "云阳",
    "pac": "500235",
    "confirmedTotal": 25
  },
  {
    "name": "奉节",
    "pac": "500236",
    "confirmedTotal": 20
  },
  {
    "name": "巫山",
    "pac": "500237",
    "confirmedTotal": 10
  },
  {
    "name": "巫溪",
    "pac": "500238",
    "confirmedTotal": 13
  },
  {
    "name": "石柱土家族",
    "pac": "500240",
    "confirmedTotal": 14
  },
  {
    "name": "秀山土家族苗族",
    "pac": "500241",
    "confirmedTotal": 1
  },
  {
    "name": "酉阳土家族苗族",
    "pac": "500242",
    "confirmedTotal": 1
  },
  {
    "name": "彭水苗族土家族",
    "pac": "500243",
    "confirmedTotal": 2
  },
  {
    "name": "四川省",
    "pac": "510000",
    "confirmedTotal": 514
  },
  {
    "name": "成都市",
    "pac": "510100",
    "confirmedTotal": 141
  },
  {
    "name": "自贡市",
    "pac": "510300",
    "confirmedTotal": 9
  },
  {
    "name": "攀枝花市",
    "pac": "510400",
    "confirmedTotal": 16
  },
  {
    "name": "泸州市",
    "pac": "510500",
    "confirmedTotal": 20
  },
  {
    "name": "德阳市",
    "pac": "510600",
    "confirmedTotal": 17
  },
  {
    "name": "绵阳市",
    "pac": "510700",
    "confirmedTotal": 22
  },
  {
    "name": "广元市",
    "pac": "510800",
    "confirmedTotal": 6
  },
  {
    "name": "遂宁市",
    "pac": "510900",
    "confirmedTotal": 17
  },
  {
    "name": "内江市",
    "pac": "511000",
    "confirmedTotal": 22
  },
  {
    "name": "乐山市",
    "pac": "511100",
    "confirmedTotal": 3
  },
  {
    "name": "南充市",
    "pac": "511300",
    "confirmedTotal": 38
  },
  {
    "name": "眉山市",
    "pac": "511400",
    "confirmedTotal": 8
  },
  {
    "name": "宜宾市",
    "pac": "511500",
    "confirmedTotal": 12
  },
  {
    "name": "广安市",
    "pac": "511600",
    "confirmedTotal": 30
  },
  {
    "name": "达州市",
    "pac": "511700",
    "confirmedTotal": 40
  },
  {
    "name": "雅安市",
    "pac": "511800",
    "confirmedTotal": 7
  },
  {
    "name": "巴中市",
    "pac": "511900",
    "confirmedTotal": 24
  },
  {
    "name": "资阳市",
    "pac": "512000",
    "confirmedTotal": 3
  },
  {
    "name": "贵州省",
    "pac": "520000",
    "confirmedTotal": 146
  },
  {
    "name": "贵阳市",
    "pac": "520100",
    "confirmedTotal": 36
  },
  {
    "name": "六盘水市",
    "pac": "520200",
    "confirmedTotal": 10
  },
  {
    "name": "遵义市",
    "pac": "520300",
    "confirmedTotal": 32
  },
  {
    "name": "安顺市",
    "pac": "520400",
    "confirmedTotal": 4
  },
  {
    "name": "毕节市",
    "pac": "520500",
    "confirmedTotal": 23
  },
  {
    "name": "铜仁市",
    "pac": "520600",
    "confirmedTotal": 10
  },
  {
    "name": "黔西南布依族苗族自治州",
    "pac": "522300",
    "confirmedTotal": 4
  },
  {
    "name": "黔东南苗族侗族自治州",
    "pac": "522600",
    "confirmedTotal": 10
  },
  {
    "name": "黔南布依族苗族自治州",
    "pac": "522700",
    "confirmedTotal": 17
  },
  {
    "name": "云南省",
    "pac": "530000",
    "confirmedTotal": 173
  },
  {
    "name": "昆明市",
    "pac": "530100",
    "confirmedTotal": 53
  },
  {
    "name": "曲靖市",
    "pac": "530300",
    "confirmedTotal": 13
  },
  {
    "name": "玉溪市",
    "pac": "530400",
    "confirmedTotal": 14
  },
  {
    "name": "保山市",
    "pac": "530500",
    "confirmedTotal": 9
  },
  {
    "name": "昭通市",
    "pac": "530600",
    "confirmedTotal": 25
  },
  {
    "name": "丽江市",
    "pac": "530700",
    "confirmedTotal": 7
  },
  {
    "name": "普洱市",
    "pac": "530800",
    "confirmedTotal": 4
  },
  {
    "name": "临沧市",
    "pac": "530900",
    "confirmedTotal": 1
  },
  {
    "name": "西双版纳傣族自治州",
    "pac": "532800",
    "confirmedTotal": 15
  },
  {
    "name": "德宏傣族景颇族自治州",
    "pac": "533100",
    "confirmedTotal": 5
  },
  {
    "name": "西藏自治区",
    "pac": "540000",
    "confirmedTotal": 1
  },
  {
    "name": "拉萨市",
    "pac": "540100",
    "confirmedTotal": 1
  },
  {
    "name": "陕西省",
    "pac": "610000",
    "confirmedTotal": 242
  },
  {
    "name": "西安市",
    "pac": "610100",
    "confirmedTotal": 118
  },
  {
    "name": "铜川市",
    "pac": "610200",
    "confirmedTotal": 8
  },
  {
    "name": "宝鸡市",
    "pac": "610300",
    "confirmedTotal": 13
  },
  {
    "name": "咸阳市",
    "pac": "610400",
    "confirmedTotal": 17
  },
  {
    "name": "渭南市",
    "pac": "610500",
    "confirmedTotal": 15
  },
  {
    "name": "延安市",
    "pac": "610600",
    "confirmedTotal": 8
  },
  {
    "name": "汉中市",
    "pac": "610700",
    "confirmedTotal": 26
  },
  {
    "name": "榆林市",
    "pac": "610800",
    "confirmedTotal": 3
  },
  {
    "name": "安康市",
    "pac": "610900",
    "confirmedTotal": 25
  },
  {
    "name": "商洛市",
    "pac": "611000",
    "confirmedTotal": 7
  },
  {
    "name": "甘肃省",
    "pac": "620000",
    "confirmedTotal": 91
  },
  {
    "name": "兰州市",
    "pac": "620100",
    "confirmedTotal": 36
  },
  {
    "name": "金昌市",
    "pac": "620300",
    "confirmedTotal": 1
  },
  {
    "name": "白银市",
    "pac": "620400",
    "confirmedTotal": 4
  },
  {
    "name": "天水市",
    "pac": "620500",
    "confirmedTotal": 12
  },
  {
    "name": "张掖市",
    "pac": "620700",
    "confirmedTotal": 2
  },
  {
    "name": "平凉市",
    "pac": "620800",
    "confirmedTotal": 9
  },
  {
    "name": "庆阳市",
    "pac": "621000",
    "confirmedTotal": 3
  },
  {
    "name": "定西市",
    "pac": "621100",
    "confirmedTotal": 9
  },
  {
    "name": "陇南市",
    "pac": "621200",
    "confirmedTotal": 4
  },
  {
    "name": "青海省",
    "pac": "630000",
    "confirmedTotal": 18
  },
  {
    "name": "西宁市",
    "pac": "630100",
    "confirmedTotal": 15
  },
  {
    "name": "海北藏族自治州",
    "pac": "632200",
    "confirmedTotal": 3
  },
  {
    "name": "宁夏回族自治区",
    "pac": "640000",
    "confirmedTotal": 71
  },
  {
    "name": "银川市",
    "pac": "640100",
    "confirmedTotal": 33
  },
  {
    "name": "石嘴山市",
    "pac": "640200",
    "confirmedTotal": 1
  },
  {
    "name": "吴忠市",
    "pac": "640300",
    "confirmedTotal": 28
  },
  {
    "name": "固原市",
    "pac": "640400",
    "confirmedTotal": 5
  },
  {
    "name": "中卫市",
    "pac": "640500",
    "confirmedTotal": 3
  },
  {
    "name": "新疆维吾尔自治区",
    "pac": "650000",
    "confirmedTotal": 76
  },
  {
    "name": "乌鲁木齐市",
    "pac": "650100",
    "confirmedTotal": 23
  },
  {
    "name": "吐鲁番市",
    "pac": "650400",
    "confirmedTotal": 3
  },
  {
    "name": "伊犁哈萨克自治州",
    "pac": "654000",
    "confirmedTotal": 18
  },
  {
    "name": "石河子市",
    "pac": "659001",
    "confirmedTotal": 4
  },
  {
    "name": "五家渠市",
    "pac": "659004",
    "confirmedTotal": 2
  },
  {
    "name": "台湾省",
    "pac": "710000",
    "confirmedTotal": 22
  },
  {
    "name": "香港特别行政区",
    "pac": "810000",
    "confirmedTotal": 62
  },
  {
    "name": "澳门特别行政区",
    "pac": "820000",
    "confirmedTotal": 10
  }
]