{
  "name": "示例",
  "scale": "height",
  "width": 520,
  "height": 400,
  "components": [
    {
      "id": "SyXtSmgC-",
      "name": "词云",
      "type": "word_cloud",
      "source": {
        "url": "./data/words.json",
        "type": "table"
      },
      "paint": {
        "series": {
          "name": "热点分析",
          "minSize": 10,
          "maxSize": 30,
          "colors": ["#ff0000", "#fff000", "#00ff00", "#0000ff"],
          "shape": "./img/heart.png",
          "gap": 10,
          "nameField": "name",
          "valueField": "value"
        }
      },
      "layout": {
        "width": 500,
        "height": 380,
        "offsetX": 10,
        "offsetY": 10,
        "visible": true
      }
    }
  ]
}