{
  "name": "示例",
  "scale": "height",
  "width": 520,
  "height": 260,
  "components": [
    {
      "id": "h4WMED5QE",
      "name": "柱状图",
      "type": "bar",
      "source": {
        "type": "table",
        "url": "./data/testdata.json"
      },
      "paint": {
        "legend": {
          "show": true,
          "itemWidth": 18,
          "itemGap": 20,
          "itemHeight": 18,
          "fontSize": 18
        },
        "xAxis": {
          "field": "city",
          "position": "bottom",
          "formatLabel": false
        },
        "series": [
          {
            "name": "人口",
            "field": "pop",
            "barWidth": 10,
            "barColor": "rgba(83,163,246,1)"
          }
        ],
        "grid": {
          "top": 70,
          "right": 20
        }
      },
      "layout": {
        "width": 500,
        "height": 240,
        "offsetX": 10,
        "offsetY": 10,
        "visible": true
      }
    }
  ]
}