{
  "name": "示例",
  "scale": "height",
  "width": 520,
  "height": 260,
  "components": [
    {
      "id": "SyXtSmgC-",
      "name": "水球",
      "type": "liquid_fill",
      "source": {
        "url": "./data/testdata.json",
        "type": "table"
      },
      "paint": {
        "color": "#fff000",
        "value": 60,
        "total": 100
      },
      "layout": {
        "width": 500,
        "height": 200,
        "offsetX": 10,
        "offsetY": 40,
        "visible": true
      }
    }
  ]
}